{
    "meta": {
        "name": "category",
        "version": "1.0.0",
        "author": "No Author",
        "created": "Never",
        "description": "Just Another Hashtag.",
        "dependencies": {
            "core": "1.0.0"
        }
    },
    "routes": {
        "manage/categories" : "Category\\Controllers\\All",
        "manage/categories/all" : "Category\\Controllers\\All",
        "manage/categories/new" : "Category\\Controllers\\Edit",
        "manage/categories/edit/:category_id" : "Category\\Controllers\\Edit",
        "manage/categories/delete/:category_id" : "Category\\Controllers\\Delete",
        "manage/categories/restore/:category_id" : "Category\\Controllers\\Restore",
        "manage/categories/archive" : "Category\\Controllers\\Archive"
    },
    "models": {
        "category": {
            "fields": {
                "id": {
                    "type" : "int",
                    "size" : "11",
                    "presentation" : "#",
                    "pk" : true,
                    "ai" : true,
                    "table_view": true,
                    "edit_view": false
                },
                "title": {
                    "type": "varchar",
                    "size" : "255",
                    "presentation" : "Title",
                    "table_view": true,
                    "edit_view": true
                },
                "slug": {
                    "type": "varchar",
                    "size" : "255",
                    "presentation" : "Slug",
                    "table_view": true,
                    "edit_view": true
                },
                "parent_id": {
                    "type": "int",
                    "presentation" : "Parent Category",
                    "size": "11",
                    "default" : "0",
                    "table_view": true,
                    "edit_view": true
                },
                "entry_datetime": {
                    "type": "int",
                    "size" : "11",
                    "presentation" : "Created",
                    "default" : "0",
                    "table_view": false,
                    "edit_view": false
                },
                "deleted": {
                    "type": "int",
                    "size" : "1",
                    "presentation" : "Deleted",
                    "default" : "0",
                    "table_view": false,
                    "edit_view": false
                }
            }
        }
        
    }
}