{
    "meta": {
        "name": "image",
        "version": "1.0.0",
        "author": "No Author",
        "created": "Never",
        "description": "Just Another Image.",
        "dependencies": {
            "core": "1.0.0"
        }
    },
    "routes": {
        "manage/images" : "Image\\Controllers\\All",
        "manage/images/all" : "Image\\Controllers\\All",
        "manage/images/new" : "Image\\Controllers\\Edit",
        "manage/images/edit/:image_id" : "Image\\Controllers\\Edit",
        "manage/images/delete/:image_id" : "Image\\Controllers\\Delete",
        "manage/images/restore/:image_id" : "Image\\Controllers\\Restore",
        "manage/images/archive" : "Image\\Controllers\\Archive"
    },
    "models": {
        "image": {
            "fields": {
                "id": {
                    "type" : "int",
                    "size" : "11",
                    "presentation" : "#",
                    "pk" : true,
                    "ai" : true,
                    "table_view": true,
                    "edit_view": false
                },
                "filename": {
                    "type": "varchar",
                    "size" : "255",
                    "presentation" : "Filename",
                    "table_view": true,
                    "edit_view": true
                },
                 "mimetype": {
                    "type": "varchar",
                    "size" : "30",
                    "presentation" : "Mimetype",
                    "table_view": false,
                    "edit_view": false
                },
                "title": {
                    "type": "varchar",
                    "size" : "100",
                    "presentation" : "Title",
                    "table_view": true,
                    "edit_view": true
                },
                "caption": {
                    "type": "text",
                    "presentation" : "Caption",
                    "table_view": false,
                    "edit_view": true
                },
                "filesize": {
                    "type": "int",
                    "size" : "11",
                    "presentation" : "Filesize",
                    "table_view": false,
                    "edit_view": false
                },
                "meta": {
                    "type": "text",
                    "presentation" : "Meta",
                    "table_view": false,
                    "edit_view": false
                },
                "thumbnail_x": {
                    "type": "int",
                    "size" : "11",
                    "default" : "0",
                    "presentation" : "Thumbnail X",
                    "table_view": false,
                    "edit_view": false
                },
                "thumbnail_y": {
                    "type": "int",
                    "size" : "11",
                    "default" : "0",
                    "presentation" : "Thumbnail Y",
                    "table_view": false,
                    "edit_view": false
                },
                "thumbnail_w": {
                    "type": "int",
                    "size" : "11",
                    "default" : "0",
                    "presentation" : "Thumbnail Width",
                    "table_view": false,
                    "edit_view": false
                },
                "thumbnail_h": {
                    "type": "int",
                    "size" : "11",
                    "default" : "0",
                    "presentation" : "Thumbnail Height",
                    "table_view": false,
                    "edit_view": false
                },
                "user_id": {
                    "type": "int",
                    "size" : "11",
                    "presentation" : "User",
                    "table_view": false,
                    "edit_view": false
                },
                "entry_datetime": {
                    "type": "int",
                    "size" : "11",
                    "presentation" : "Created",
                    "default" : "0",
                    "table_view": false,
                    "edit_view": false
                },
                "deleted": {
                    "type": "int",
                    "size" : "1",
                    "presentation" : "Deleted",
                    "default" : "0",
                    "table_view": false,
                    "edit_view": false
                }
            }
        }
        
    }
}